<?xml version="1.0" encoding="utf-8"?>
<!-- Generator: Adobe Illustrator 23.0.1, SVG Export Plug-In . SVG Version: 6.00 Build 0)  -->
<svg version="1.1" id="Layer_1" xmlns="http://www.w3.org/2000/svg" xmlns:xlink="http://www.w3.org/1999/xlink" x="0px" y="0px"
	 viewBox="0 0 48 48" style="enable-background:new 0 0 48 48;" xml:space="preserve">
<style type="text/css">
	.st0{fill-rule:evenodd;clip-rule:evenodd;fill:#3C2A30;}
	.st1{fill:#418B71;}
	.st2{fill:#52AD8D;}
</style>
<g>
	<path class="st0" d="M48,0l-8,4V0v4l-8-4L0,0l0,44l8,4h40V0z"/>
</g>
<path class="st1" d="M37.9,26.8h-4.5V12.9c0-0.1,0-0.2-0.1-0.2c-0.1-0.1-0.1-0.1-0.2-0.1h-3.8c-0.1,0-0.2,0-0.2,0.1
	C29,12.7,29,12.8,29,12.9v13.9h-4.5l1,1.9l4.8,9.7v0h1.8l0,0l4.8-9.7L37.9,26.8C37.9,26.8,37.9,26.8,37.9,26.8z"/>
<path class="st2" d="M9.9,21.5h4.5v13.9c0,0.1,0,0.2,0.1,0.2c0.1,0.1,0.1,0.1,0.2,0.1h3.8c0.1,0,0.2,0,0.2-0.1
	c0.1-0.1,0.1-0.1,0.1-0.2V21.5h4.5l-1-1.9l-4.8-9.7v0h-1.8l0,0l-4.8,9.7L9.9,21.5C9.9,21.5,9.9,21.5,9.9,21.5z"/>
</svg>
